…
Selecting columns

Next, you may want to select only some columns of the dataframe. You can use the select function from dplyr. The basic structure of this command is:

## Generic code
select(dataframe, column_name_1, column_name_2, ...)

For example, to select all columns in daily_show except year (since that information is already included in date), run:

select(daily_show, job, date, category, guest_name)
#> # A tibble: 2,693 x 4
#>                   job    date category       guest_name
#>                 <chr>   <chr>    <chr>            <chr>
#>  1              actor 1/11/99   Acting   Michael J. Fox
#>  2           Comedian 1/12/99   Comedy  Sandra Bernhard
#>  3 television actress 1/13/99   Acting    Tracey Ullman
#>  4       film actress 1/14/99   Acting Gillian Anderson
#>  5              actor 1/18/99   Acting David Alan Grier
#>  6              actor 1/19/99   Acting  William Baldwin
#>  7    Singer-lyricist 1/20/99 Musician    Michael Stipe
#>  8              model 1/21/99    Media   Carmen Electra
#>  9              actor 1/25/99   Acting  Matthew Lillard
#> 10  stand-up comedian 1/26/99   Comedy      David Cross
#> # ... with 2,683 more rows
…
For example, the job column in daily_show sometimes uses upper case and sometimes does not:

head(unique(daily_show$job), 10)
#>  [1] "United States Senator" "Journalist"           
#>  [3] "Columnist"             "united states senator"
#>  [5] "actress"               "journalist"           
#>  [7] NA                      "neurosurgeon"         
#>  [9] "Consultant"            "actor"

To make all the observations in the job column lowercase, use the tolower function within a mutate function:

mutate(daily_show, job = tolower(job))
#> # A tibble: 2,693 x 4
#>                      job   date   category         guest_name
#>                    <chr>  <chr>      <chr>              <chr>
#>  1 united states senator 9/9/14 Politician Kirsten Gillibrand
#>  2            journalist 9/9/13      Media         Sheri Fink
#>  3             columnist 9/9/10      Media      Meghan McCain
#>  4 united states senator 9/9/03 Politician         Al Franken
#>  5               actress 9/9/02     Acting    Lorraine Bracco
#>  6               actress 9/8/11     Acting   Marion Cotillard
#>  7 united states senator 9/8/10 Politician          Tim Kaine
#>  8            journalist 9/8/05      Media     Brian Williams
#>  9                  <NA> 9/7/12       <NA>               none
#> 10          neurosurgeon 9/7/11    Science   Dr. Sanjay Gupta
#> # ... with 2,683 more rows
…
